C = 90e-3;          % Fuselage Diameter         [m]
m0 = 8;             % Dry mass                  [Kg]
mp = 2;             % Mass of fuel              [Kg]
tb = 2.1;           % Burning time              [s]
Iyyf = 3.98;        % Inertia to y axis (full)  [Kg m^2]
Iyye = 3.33;        % Inertia to y axis (empty) [Kg m^2]
T = 780;            % Trust                     [N]
g = 9.81;           % Gravity acceleration      [m/s^2]
CD = .8;            % Drag coefficient          [-]
CLa = 3.222;        % Lift coefficient          [-]
CMa = -50;          % Aereodynamic moment coeff.[-]
Vwind = [-1;0];     % Wind velocity             [m/s]